station_quiz_week_06_manukov2.utf8.md
…
colnames(inspections) = tolower(colnames(inspections))
library(tidyverse)
cmt <- array(0,c(nrow(inspections),14))
for (i in 1:ncol(cmt))
cmt[,i] <- str_count(inspections$violations, paste0("^",i,"\\. | ",i,"\\. ")) 
inspections$criticalviolations <- rowSums(cmt)
cmt2 <- array(15,c(nrow(inspections),21))
for (i in 1:ncol(cmt2))
cmt2[,i] <- str_count(inspections$violations, paste0("^",i,"\\. | ",i,"\\. ")) 
inspections$seriousviolations <- rowSums(cmt2)
inspections = mutate(inspections , violationseverity = ifelse(criticalviolations ==0 & seriousviolations==0, 0, 1))

arrange(inspections,desc(totalviolations))

## # A tibble: 8,900 x 18
##    `inspection id` `dba name` `aka name` `license #` `facility type` risk 
##              <dbl> <chr>      <chr>            <dbl> <chr>           <chr>
##  1         2269090 CURRY POI~ CURRY POI~     2304080 Restaurant      Risk~
##  2         2261633 NANO SUSHI NANO SUSHI     2146568 Restaurant      Risk~
##  3         2268366 BITE       BITE             51992 Restaurant      Risk~
##  4         2222252 VILLA PAL~ VILLA PAL~        1470 Restaurant      Risk~
##  5         2200230 TAHOORA S~ TAHOORA S~     1593122 Restaurant      Risk~
##  6         2184537 MYSORE WO~ MYSORE WO~     2229409 Restaurant      Risk~
##  7         2286121 BIG BITE ~ BIG BITE ~     2663629 Restaurant      Risk~
##  8         2280066 TUMI       TUMI REST~     2463208 Restaurant      Risk~
##  9         2290685 SU TAQUER~ SU TAQUER~     2293964 Restaurant      Risk~
## 10         2286184 LOS POLLI~ LOS POLLI~     2404445 Restaurant      Risk~
## # ... with 8,890 more rows, and 12 more variables: zip <dbl>, `inspection
## #   date` <date>, `inspection type` <chr>, results <chr>,
## #   violations <chr>, latitude <dbl>, longitude <dbl>,
## #   totalviolations <dbl>, passornot <dbl>, criticalviolations <dbl>,
## #   seriousviolations <dbl>, violationseverity <dbl>
…
